Categories:Internet,Reading
License:GPL-3.0-only
Web Site:
Source Code:https://gitlab.com/spacecowboy/Feeder
Issue Tracker:https://gitlab.com/spacecowboy/Feeder/issues
Changelog:https://gitlab.com/spacecowboy/Feeder/blob/HEAD/CHANGELOG.md
Bitcoin:1PdmeeGxB2iktvmtkGqwUNmYq7L9tnxjwE

Auto Name:Feeder
Summary:RSS feed reader
Description:
Are you sick of bloated non-free readers that steal your personal information?
Are you tired of convoluted syncing setups requiring hours of server
configuration? Are you fed up with having to create accounts everywhere?

Try Feeder instead!

Feeder is a fully free/libre feed reader. It supports all common feed formats,
including JSONFeed. It doesn't track you. It doesn't require any setup. It
doesn't even need you to create an account! Just setup your feeds, or import
them from your old reader via OPML, then get on with syncing and reading.

'''Features'''

* Parses HTML and displays it in a native TextView
* Offline reading
* Background synchronization
* Notifications
* OPML Import/Export
* Handy access to enclosure links
* Material design
.

Repo Type:git
Repo:https://gitlab.com/spacecowboy/Feeder.git

Build:1.2.2,5
    commit=1.2.2
    subdir=app
    submodules=yes
    gradle=yes

Build:1.2.3,6
    commit=1.2.3
    subdir=app
    submodules=yes
    gradle=yes

Build:1.3.0,7
    commit=1.3.0
    subdir=app
    submodules=yes
    gradle=yes

Build:1.3.2,9
    commit=1.3.2
    subdir=app
    submodules=yes
    gradle=yes

Build:1.3.3,10
    commit=1.3.3
    subdir=app
    submodules=yes
    gradle=yes

Build:1.3.4,11
    commit=1.3.4
    subdir=app
    submodules=yes
    gradle=yes

Build:1.3.5,12
    commit=1.3.5
    subdir=app
    submodules=yes
    gradle=yes

Build:1.3.6,13
    commit=1.3.6
    subdir=app
    submodules=yes
    gradle=yes

Build:1.3.7,14
    commit=1.3.7
    subdir=app
    submodules=yes
    gradle=yes

Build:1.3.8,15
    commit=1.3.8
    subdir=app
    submodules=yes
    gradle=yes

Build:1.3.9,16
    commit=1.3.9
    subdir=app
    submodules=yes
    gradle=yes

Build:1.3.10,17
    commit=1.3.10
    subdir=app
    submodules=yes
    gradle=yes

Build:1.3.11,18
    commit=1.3.11
    subdir=app
    submodules=yes
    gradle=yes

Build:1.3.12,19
    commit=1.3.12
    subdir=app
    submodules=yes
    gradle=yes

Build:1.3.13,20
    commit=1.3.13
    subdir=app
    submodules=yes
    gradle=yes

Build:1.3.14,21
    commit=1.3.14
    subdir=app
    submodules=yes
    gradle=yes

Build:1.3.15,22
    commit=1.3.15
    subdir=app
    submodules=yes
    gradle=yes

Build:1.4.0,23
    commit=1.4.0
    subdir=app
    submodules=yes
    gradle=yes

Build:1.4.1,24
    commit=1.4.1
    subdir=app
    submodules=yes
    gradle=yes

Build:1.4.2,25
    commit=1.4.2
    subdir=app
    submodules=yes
    gradle=yes

Build:1.4.3,26
    commit=1.4.3
    subdir=app
    submodules=yes
    gradle=yes

Build:1.5.0,27
    commit=1.5.0
    subdir=app
    submodules=yes
    gradle=yes

Build:1.6.0,28
    commit=1.6.0
    subdir=app
    submodules=yes
    gradle=yes

Build:1.6.1,29
    commit=1.6.1
    subdir=app
    submodules=yes
    gradle=yes

Build:1.6.2,30
    commit=1.6.2
    subdir=app
    submodules=yes
    gradle=yes

Build:1.6.3,31
    commit=1.6.3
    subdir=app
    submodules=yes
    gradle=yes

Build:1.6.4,32
    commit=1.6.4
    subdir=app
    submodules=yes
    gradle=yes

Build:1.6.5,33
    commit=1.6.5
    subdir=app
    submodules=yes
    gradle=yes

Build:1.6.6,34
    commit=1.6.6
    subdir=app
    submodules=yes
    gradle=yes

Build:1.6.7,35
    commit=1.6.7
    subdir=app
    submodules=yes
    gradle=yes

Build:1.6.8,36
    commit=1.6.8
    subdir=app
    submodules=yes
    gradle=yes

Build:1.7.0,37
    commit=1.7.0
    subdir=app
    submodules=yes
    gradle=yes

Build:1.7.1,38
    commit=1.7.1
    subdir=app
    submodules=yes
    gradle=yes

Build:1.8.0,39
    commit=1.8.0
    subdir=app
    submodules=yes
    gradle=yes

Build:1.8.1,40
    commit=1.8.1
    subdir=app
    submodules=yes
    gradle=yes

Build:1.8.2,41
    commit=1.8.2
    subdir=app
    submodules=yes
    gradle=yes

Build:1.8.3,42
    commit=1.8.3
    subdir=app
    submodules=yes
    gradle=yes

Build:1.8.4,43
    commit=1.8.4
    subdir=app
    submodules=yes
    gradle=yes

Build:1.8.5,44
    commit=1.8.5
    subdir=app
    submodules=yes
    gradle=yes

Build:1.8.6,45
    commit=1.8.6
    subdir=app
    submodules=yes
    gradle=yes

Build:1.8.7,46
    commit=1.8.7
    subdir=app
    submodules=yes
    gradle=yes

Build:1.8.8,47
    commit=1.8.8
    subdir=app
    submodules=yes
    gradle=yes

Build:1.8.9,48
    commit=1.8.9
    subdir=app
    submodules=yes
    gradle=yes

Build:1.8.10,49
    commit=1.8.10
    subdir=app
    submodules=yes
    gradle=yes

Build:1.8.11,50
    commit=1.8.11
    subdir=app
    submodules=yes
    gradle=yes

Build:1.8.12,51
    commit=1.8.12
    subdir=app
    submodules=yes
    gradle=yes

Auto Update Mode:Version %v
Update Check Mode:Tags
Current Version:1.8.12
Current Version Code:51
